Lab3/code/tb_wave.vcd
$date
	Sun May 19 13:41:55 2019
$end
$version
	Icarus Verilog
$end
$timescale
	1ps
$end
$scope module TestBench $end
$scope module CPU $end
$var wire 1 ! Branch_select $end
$var wire 1 " clk_i $end
$var wire 1 # rst_i $end
$var wire 32 $ pc_next [31:0] $end
$var wire 32 % pc_data [31:0] $end
$var wire 32 & pc_add4 [31:0] $end
$var wire 5 ' instr_shamt [4:0] $end
$var wire 5 ( instr_rt [4:0] $end
$var wire 5 ) instr_rs [4:0] $end
$var wire 5 * instr_rd [4:0] $end
$var wire 6 + instr_op [5:0] $end
$var wire 6 , instr_func [5:0] $end
$var wire 16 - instr_Immdt [15:0] $end
$var wire 32 . instr [31:0] $end
$var wire 5 / WriteReg_addr [4:0] $end
$var wire 1 0 RegWrite_ctrl $end
$var wire 32 1 RegWB_data [31:0] $end
$var wire 2 2 RegDst_ctrl [1:0] $end
$var wire 2 3 MemtoReg_ctrl [1:0] $end
$var wire 1 4 MemWrite_ctrl $end
$var wire 32 5 MemRead_data [31:0] $end
$var wire 1 6 MemRead_ctrl $end
$var wire 2 7 Jump_ctrl [1:0] $end
$var wire 32 8 Jump_Addr [31:0] $end
$var wire 32 9 Immdt_shift [31:0] $end
$var wire 32 : Immdt_32 [31:0] $end
$var wire 32 ; Branch_o [31:0] $end
$var wire 1 < Branch_ctrl $end
$var wire 32 = Branch_addr [31:0] $end
$var wire 1 > Branch_MUX_o $end
$var wire 2 ? BranchType_ctrl [1:0] $end
$var wire 1 @ Alu_zero $end
$var wire 1 A AluSrc_ctrl $end
$var wire 32 B AluSrc2_reg [31:0] $end
$var wire 32 C AluSrc2 [31:0] $end
$var wire 32 D AluSrc1 [31:0] $end
$var wire 32 E AluResult [31:0] $end
$var wire 4 F AluOp_ctrl [3:0] $end
$var wire 4 G AluOpCode [3:0] $end
$scope module AC $end
$var wire 6 H funct_i [5:0] $end
$var wire 4 I ALUOp_i [3:0] $end
$var reg 4 J ALUCtrl_o [3:0] $end
$upscope $end
$scope module ALU $end
$var wire 4 K ctrl_i [3:0] $end
$var wire 5 L shamt [4:0] $end
$var wire 32 M signed_src1 [31:0] $end
$var wire 32 N signed_src2 [31:0] $end
$var wire 32 O unsigned_src1 [31:0] $end
$var wire 32 P unsigned_src2 [31:0] $end
$var wire 1 @ zero_o $end
$var wire 32 Q src2_i [31:0] $end
$var wire 32 R src1_i [31:0] $end
$var wire 32 S pc_add4 [31:0] $end
$var reg 32 T result_o [31:0] $end
$upscope $end
$scope module Adder1 $end
$var wire 32 U src1_i [31:0] $end
$var wire 32 V sum_o [31:0] $end
$var wire 32 W src2_i [31:0] $end
$upscope $end
$scope module Adder2 $end
$var wire 32 X src1_i [31:0] $end
$var wire 32 Y sum_o [31:0] $end
$var wire 32 Z src2_i [31:0] $end
$upscope $end
$scope module Data_Memory $end
$var wire 32 [ addr_i [31:0] $end
$var wire 1 " clk_i $end
$var wire 32 \ data_i [31:0] $end
$var wire 1 4 MemWrite_i $end
$var wire 1 6 MemRead_i $end
$var reg 32 ] data_o [31:0] $end
$var integer 32 ^ i [31:0] $end
$upscope $end
$scope module Decoder $end
$var wire 6 _ instr_func_i [5:0] $end
$var wire 6 ` instr_op_i [5:0] $end
$var reg 1 A ALUSrc_o $end
$var reg 4 a ALU_op_o [3:0] $end
$var reg 2 b BranchType_o [1:0] $end
$var reg 1 < Branch_o $end
$var reg 2 c Jump_o [1:0] $end
$var reg 1 6 MemRead_o $end
$var reg 1 4 MemWrite_o $end
$var reg 2 d MemtoReg_o [1:0] $end
$var reg 2 e RegDst_o [1:0] $end
$var reg 1 0 RegWrite_o $end
$upscope $end
$scope module IM $end
$var wire 32 f instr_o [31:0] $end
$var wire 32 g addr_i [31:0] $end
$var integer 32 h i [31:0] $end
$upscope $end
$scope module Mux_ALUSrc $end
$var wire 1 A select_i $end
$var wire 32 i data1_i [31:0] $end
$var wire 32 j data0_i [31:0] $end
$var reg 32 k data_o [31:0] $end
$upscope $end
$scope module Mux_Branch $end
$var wire 32 l data0_i [31:0] $end
$var wire 32 m data1_i [31:0] $end
$var wire 1 ! select_i $end
$var reg 32 n data_o [31:0] $end
$upscope $end
$scope module Mux_Branch_Type $end
$var wire 1 @ data0_i $end
$var wire 1 o data1_i $end
$var wire 1 p data2_i $end
$var wire 1 q data3_i $end
$var wire 2 r select_i [1:0] $end
$var reg 1 > data_o $end
$upscope $end
$scope module Mux_PC_Source $end
$var wire 32 s data0_i [31:0] $end
$var wire 32 t data1_i [31:0] $end
$var wire 32 u data3_i [31:0] $end
$var wire 2 v select_i [1:0] $end
$var wire 32 w data2_i [31:0] $end
$var reg 32 x data_o [31:0] $end
$upscope $end
$scope module Mux_Write_Back $end
$var wire 32 y data0_i [31:0] $end
$var wire 32 z data1_i [31:0] $end
$var wire 32 { data3_i [31:0] $end
$var wire 2 | select_i [1:0] $end
$var wire 32 } data2_i [31:0] $end
$var reg 32 ~ data_o [31:0] $end
$upscope $end
$scope module Mux_Write_Reg $end
$var wire 5 !" data0_i [4:0] $end
$var wire 5 "" data1_i [4:0] $end
$var wire 5 #" data2_i [4:0] $end
$var wire 5 $" data3_i [4:0] $end
$var wire 2 %" select_i [1:0] $end
$var reg 5 &" data_o [4:0] $end
$upscope $end
$scope module PC $end
$var wire 1 " clk_i $end
$var wire 32 '" pc_in_i [31:0] $end
$var wire 1 # rst_i $end
$var reg 32 (" pc_out_o [31:0] $end
$upscope $end
$scope module RF $end
$var wire 5 )" RDaddr_i [4:0] $end
$var wire 32 *" RDdata_i [31:0] $end
$var wire 5 +" RSaddr_i [4:0] $end
$var wire 32 ," RSdata_o [31:0] $end
$var wire 5 -" RTaddr_i [4:0] $end
$var wire 32 ." RTdata_o [31:0] $end
$var wire 1 0 RegWrite_i $end
$var wire 1 " clk_i $end
$var wire 1 # rst_i $end
$upscope $end
$scope module SE $end
$var wire 16 /" data_i [15:0] $end
$var wire 32 0" data_o [31:0] $end
$upscope $end
$scope module Shifter $end
$var wire 32 1" data_i [31:0] $end
$var wire 32 2" data_o [31:0] $end
$upscope $end
$upscope $end
$upscope $end
$enddefinitions $end
#0
$dumpvars
bx00 2"
bx 1"
bx 0"
bx /"
bx ."
bx -"
bx ,"
bx +"
bx *"
bx )"
bx ("
bx '"
bx &"
bx %"
bz $"
b11111 #"
bx ""
bx !"
bx ~
bx }
bx |
bz {
bx z
bx y
bx x
bx w
bx v
bz u
bx00 t
bx s
bx r
xq
xp
xo
bx n
bx m
bx l
bx k
bx j
bx i
b100000 h
bx g
bx f
bx e
bx d
bx c
bx b
bx a
bx `
bx _
b10000000 ^
bx ]
bx \
bx [
bx00 Z
bx Y
bx X
bx W
bx V
b100 U
bx T
bx S
bx R
bx Q
bx P
bx O
bx N
bx M
bx L
bx K
bx J
bx I
bx H
bx G
bx F
bx E
bx D
bx C
bx B
xA
x@
bx ?
x>
bx =
x<
bx ;
bx :
bx00 9
bx00 8
bx 7
x6
bx 5
x4
bx 3
bx 2
bx 1
x0
bx /
bx .
bx -
bx ,
bx +
bx *
bx )
bx (
bx '
bx &
bx %
bx $
0#
0"
x!
$end
#25000
b0 1
b0 ~
b0 *"
1o
0p
b100 $
b100 x
b100 '"
0q
1@
b0 E
b0 T
b0 [
b0 y
b100 ;
b100 n
b100 s
b1000 /
b1000 &"
b1000 )"
b0 N
b0 P
b0 C
b0 Q
b0 k
b10 G
b10 J
b10 K
0!
b0 3
b0 d
b0 |
04
06
b0 7
b0 c
b0 v
0<
b1 2
b1 e
b1 %"
0A
b10 F
b10 I
b10 a
10
b10000000010001000 =
b10000000010001000 Y
b10000000010001000 m
b10000000010000100 9
b10000000010000100 Z
b10000000010000100 2"
b100000000100001 :
b100000000100001 i
b100000000100001 }
b100000000100001 0"
b100000000100001 1"
b100000000100001 -
b100000000100001 /"
b0 +
b0 `
b0 M
b0 O
b0 D
b0 R
b0 w
b0 ,"
b0 )
b0 +"
b0 B
b0 \
b0 j
b0 ."
b0 (
b0 !"
b0 -"
b1000 *
b1000 ""
b0 '
b0 L
b100001 ,
b100001 H
b100001 _
b10000000010000100 8
b10000000010000100 t
b100000000100001 .
b100000000100001 f
b100 &
b100 S
b100 V
b100 X
b100 l
b0 %
b0 W
b0 g
b0 ("
1"
#50000
0"
1#
#75000
b1010 1
b1010 ~
b1010 *"
0o
1q
0@
b1010 E
b1010 T
b1010 [
b1010 y
b1010 N
b1010 P
b1010 C
b1010 Q
b1010 k
b1001 G
b1001 J
b1001 K
b1000 $
b1000 x
b1000 '"
b1001 /
b1001 &"
b1001 )"
b0 2
b0 e
b0 %"
1A
b0 F
b0 I
b0 a
b1000 ;
b1000 n
b1000 s
b101000 9
b101000 Z
b101000 2"
b1001000000000000101000 8
b1001000000000000101000 t
b1010 :
b1010 i
b1010 }
b1010 0"
b1010 1"
b1010 -
b1010 /"
b1000 +
b1000 `
b1001 (
b1001 !"
b1001 -"
b0 *
b0 ""
b1010 ,
b1010 H
b1010 _
b100000000010010000000000001010 .
b100000000010010000000000001010 f
b110000 =
b110000 Y
b110000 m
b1000 &
b1000 S
b1000 V
b1000 X
b1000 l
b100 %
b100 W
b100 g
b100 ("
1"
#100000
0"
#125000
b1101 1
b1101 ~
b1101 *"
b1101 E
b1101 T
b1101 [
b1101 y
b1100 $
b1100 x
b1100 '"
b1010 /
b1010 &"
b1010 )"
b1101 N
b1101 P
b1101 C
b1101 Q
b1101 k
b1100 ;
b1100 n
b1100 s
b110100 9
b110100 Z
b110100 2"
b1010000000000000110100 8
b1010000000000000110100 t
b1101 :
b1101 i
b1101 }
b1101 0"
b1101 1"
b1101 -
b1101 /"
b1010 (
b1010 !"
b1010 -"
b1101 ,
b1101 H
b1101 _
b100000000010100000000000001101 .
b100000000010100000000000001101 f
b1000000 =
b1000000 Y
b1000000 m
b1100 &
b1100 S
b1100 V
b1100 X
b1100 l
b1000 %
b1000 W
b1000 g
b1000 ("
b0 B
b0 \
b0 j
b0 ."
1"
#150000
0"
#175000
b1100100 1
b1100100 ~
b1100100 *"
b1101 G
b1101 J
b1101 K
b10000 $
b10000 x
b10000 '"
b1100100 E
b1100100 T
b1100100 [
b1100100 y
b1010 N
b1010 P
b1010 C
b1010 Q
b1010 k
b1011 /
b1011 &"
b1011 )"
b1 2
b1 e
b1 %"
0A
b10 F
b10 I
b10 a
b10000 ;
b10000 n
b10000 s
b10110000001100000 9
b10110000001100000 Z
b10110000001100000 2"
b100101001010110000001100000 8
b100101001010110000001100000 t
b101100000011000 :
b101100000011000 i
b101100000011000 }
b101100000011000 0"
b101100000011000 1"
b101100000011000 -
b101100000011000 /"
b0 +
b0 `
b1010 M
b1010 O
b1010 D
b1010 R
b1010 w
b1010 ,"
b1001 )
b1001 +"
b1001 (
b1001 !"
b1001 -"
b1011 *
b1011 ""
b11000 ,
b11000 H
b11000 _
b1001010010101100000011000 .
b1001010010101100000011000 f
b10110000001110000 =
b10110000001110000 Y
b10110000001110000 m
b10000 &
b10000 S
b10000 V
b10000 X
b10000 l
b1100 %
b1100 W
b1100 g
b1100 ("
b1010 B
b1010 \
b1010 j
b1010 ."
1"
#200000
0"
#225000
xp
bx G
bx J
bx K
b1011100 $
b1011100 x
b1011100 '"
xo
xq
x@
bx E
bx T
bx [
bx y
b0 N
b0 P
b0 C
b0 Q
b0 k
b0 /
b0 &"
b0 )"
bx 3
bx d
bx |
b1 7
b1 c
b1 v
bx 2
bx e
bx %"
bx F
bx I
bx a
00
b10100 ;
b10100 n
b10100 s
b1011100 9
b1011100 Z
b1011100 2"
b1011100 8
b1011100 t
b10111 :
b10111 i
b10111 }
b10111 0"
b10111 1"
b10111 -
b10111 /"
b10 +
b10 `
b0 M
b0 O
b0 D
b0 R
b0 w
b0 ,"
b0 )
b0 +"
b0 B
b0 \
b0 j
b0 ."
b0 (
b0 !"
b0 -"
b0 *
b0 ""
b10111 ,
b10111 H
b10111 _
b1000000000000000000000010111 .
b1000000000000000000000010111 f
b1110000 =
b1110000 Y
b1110000 m
b10100 &
b10100 S
b10100 V
b10100 X
b10100 l
b10000 %
b10000 W
b10000 g
b10000 ("
1"
#250000
0"
#275000
0o
0p
1q
0@
b11 E
b11 T
b11 [
b11 y
b11 1
b11 ~
b11 *"
b1010 /
b1010 &"
b1010 )"
b11 G
b11 J
b11 K
b1100000 $
b1100000 x
b1100000 '"
b1010 N
b1010 P
b1010 C
b1010 Q
b1010 k
b0 3
b0 d
b0 |
b0 7
b0 c
b0 v
b1 2
b1 e
b1 %"
b10 F
b10 I
b10 a
10
b1100000 ;
b1100000 n
b1100000 s
b10100000010001100 9
b10100000010001100 Z
b10100000010001100 2"
b101001001010100000010001100 8
b101001001010100000010001100 t
b101000000100011 :
b101000000100011 i
b101000000100011 }
b101000000100011 0"
b101000000100011 1"
b101000000100011 -
b101000000100011 /"
b0 +
b0 `
b1101 M
b1101 O
b1101 D
b1101 R
b1101 w
b1101 ,"
b1010 )
b1010 +"
b1010 B
b1010 \
b1010 j
b1010 ."
b1001 (
b1001 !"
b1001 -"
b1010 *
b1010 ""
b100011 ,
b100011 H
b100011 _
b1010010010101000000100011 .
b1010010010101000000100011 f
b10100000011101100 =
b10100000011101100 Y
b10100000011101100 m
b1100000 &
b1100000 S
b1100000 V
b1100000 X
b1100000 l
b1011100 %
b1011100 W
b1011100 g
b1011100 ("
1"
#300000
0"
#325000
b1100100 $
b1100100 x
b1100100 '"
b1100111 1
b1100111 ~
b1100111 *"
b11 N
b11 P
b11 C
b11 Q
b11 k
b1100 /
b1100 &"
b1100 )"
b10 G
b10 J
b10 K
b1100100 ;
b1100100 n
b1100100 s
b1100111 E
b1100111 T
b1100111 [
b1100111 y
b11000000010000100 9
b11000000010000100 Z
b11000000010000100 2"
b101101010011000000010000100 8
b101101010011000000010000100 t
b110000000100001 :
b110000000100001 i
b110000000100001 }
b110000000100001 0"
b110000000100001 1"
b110000000100001 -
b110000000100001 /"
b1011 )
b1011 +"
b11 B
b11 \
b11 j
b11 ."
b1010 (
b1010 !"
b1010 -"
b1100 *
b1100 ""
b100001 ,
b100001 H
b100001 _
b1011010100110000000100001 .
b1011010100110000000100001 f
b11000000011101000 =
b11000000011101000 Y
b11000000011101000 m
b1100100 &
b1100100 S
b1100100 V
b1100100 X
b1100100 l
b1100000 %
b1100000 W
b1100000 g
b1100000 ("
b1100100 M
b1100100 O
b1100100 D
b1100100 R
b1100100 w
b1100100 ,"
1"
#350000
0"
#375000
0>
b111 G
b111 J
b111 K
b1101000 $
b1101000 x
b1101000 '"
0!
b11111 /
b11111 &"
b11111 )"
b111 E
b111 T
b111 [
b111 y
b0 ?
b0 b
b0 r
bx 3
bx d
bx |
1<
bx 2
bx e
bx %"
b1 F
b1 I
b1 a
00
b1101000 ;
b1101000 n
b1101000 s
b11111111111111111111111111111000 9
b11111111111111111111111111111000 Z
b11111111111111111111111111111000 2"
b100101010111111111111111000 8
b100101010111111111111111000 t
b11111111111111111111111111111110 :
b11111111111111111111111111111110 i
b11111111111111111111111111111110 }
b11111111111111111111111111111110 0"
b11111111111111111111111111111110 1"
b1111111111111110 -
b1111111111111110 /"
b100 +
b100 `
b1010 M
b1010 O
b1010 D
b1010 R
b1010 w
b1010 ,"
b1001 )
b1001 +"
b11111 *
b11111 ""
b11111 '
b11111 L
b111110 ,
b111110 H
b111110 _
b10001001010101111111111111110 .
b10001001010101111111111111110 f
b1100000 =
b1100000 Y
b1100000 m
b1101000 &
b1101000 S
b1101000 V
b1101000 X
b1101000 l
b1100100 %
b1100100 W
b1100100 g
b1100100 ("
1"
#400000
0"
#425000
xq
x@
bx G
bx J
bx K
b10100 $
b10100 x
b10100 '"
xo
xp
b0 N
b0 P
b0 C
b0 Q
b0 k
bx E
bx T
bx [
bx y
bx ?
bx b
bx r
b1 7
b1 c
b1 v
0<
bx F
bx I
bx a
b1101100 ;
b1101100 n
b1101100 s
b10100 9
b10100 Z
b10100 2"
b10100 8
b10100 t
b101 :
b101 i
b101 }
b101 0"
b101 1"
b101 -
b101 /"
b10 +
b10 `
b0 M
b0 O
b0 D
b0 R
b0 w
b0 ,"
b0 )
b0 +"
b0 B
b0 \
b0 j
b0 ."
b0 (
b0 !"
b0 -"
b0 *
b0 ""
b0 '
b0 L
b101 ,
b101 H
b101 _
b1000000000000000000000000101 .
b1000000000000000000000000101 f
b10000000 =
b10000000 Y
b10000000 m
b1101100 &
b1101100 S
b1101100 V
b1101100 X
b1101100 l
b1101000 %
b1101000 W
b1101000 g
b1101000 ("
1"
#450000
0"
#475000
0o
0p
1q
0@
b1010 E
b1010 T
b1010 [
b1010 y
b1010 1
b1010 ~
b1010 *"
b1000 /
b1000 &"
b1000 )"
b1010 N
b1010 P
b1010 C
b1010 Q
b1010 k
b1001 G
b1001 J
b1001 K
b11000 $
b11000 x
b11000 '"
b0 3
b0 d
b0 |
b0 7
b0 c
b0 v
b0 2
b0 e
b0 %"
1A
b0 F
b0 I
b0 a
10
b11000 ;
b11000 n
b11000 s
b101000 9
b101000 Z
b101000 2"
b1000000000000000101000 8
b1000000000000000101000 t
b1010 :
b1010 i
b1010 }
b1010 0"
b1010 1"
b1010 -
b1010 /"
b1000 +
b1000 `
b1000 (
b1000 !"
b1000 -"
b1010 ,
b1010 H
b1010 _
b100000000010000000000000001010 .
b100000000010000000000000001010 f
b1000000 =
b1000000 Y
b1000000 m
b11000 &
b11000 S
b11000 V
b11000 X
b11000 l
b10100 %
b10100 W
b10100 g
b10100 ("
1"
#500000
0"
#525000
b100 1
b100 ~
b100 *"
b100 E
b100 T
b100 [
b100 y
b11100 $
b11100 x
b11100 '"
b100 N
b100 P
b100 C
b100 Q
b100 k
b1001 /
b1001 &"
b1001 )"
b11100 ;
b11100 n
b11100 s
b10000 9
b10000 Z
b10000 2"
b1001000000000000010000 8
b1001000000000000010000 t
b100 :
b100 i
b100 }
b100 0"
b100 1"
b100 -
b100 /"
b1001 (
b1001 !"
b1001 -"
b100 ,
b100 H
b100 _
b100000000010010000000000000100 .
b100000000010010000000000000100 f
b101100 =
b101100 Y
b101100 m
b11100 &
b11100 S
b11100 V
b11100 X
b11100 l
b11000 %
b11000 W
b11000 g
b11000 ("
b1010 B
b1010 \
b1010 j
b1010 ."
1"
#550000
0"
#575000
b101000 1
b101000 ~
b101000 *"
b1100 /
b1100 &"
b1100 )"
b1101 G
b1101 J
b1101 K
b100000 $
b100000 x
b100000 '"
b100 N
b100 P
b100 C
b100 Q
b100 k
b101000 E
b101000 T
b101000 [
b101000 y
b1 2
b1 e
b1 %"
0A
b10 F
b10 I
b10 a
b100000 ;
b100000 n
b100000 s
b11000000001100000 9
b11000000001100000 Z
b11000000001100000 2"
b100001001011000000001100000 8
b100001001011000000001100000 t
b110000000011000 :
b110000000011000 i
b110000000011000 }
b110000000011000 0"
b110000000011000 1"
b110000000011000 -
b110000000011000 /"
b0 +
b0 `
b1010 M
b1010 O
b1010 D
b1010 R
b1010 w
b1010 ,"
b1000 )
b1000 +"
b1100 *
b1100 ""
b11000 ,
b11000 H
b11000 _
b1000010010110000000011000 .
b1000010010110000000011000 f
b11000000010000000 =
b11000000010000000 Y
b11000000010000000 m
b100000 &
b100000 S
b100000 V
b100000 X
b100000 l
b11100 %
b11100 W
b11100 g
b11100 ("
b100 B
b100 \
b100 j
b100 ."
1"
#600000
0"
#625000
b1000 1
b1000 ~
b1000 *"
b1001 G
b1001 J
b1001 K
b100100 $
b100100 x
b100100 '"
0o
1q
0@
b1000 E
b1000 T
b1000 [
b1000 y
b1000 N
b1000 P
b1000 C
b1000 Q
b1000 k
b1110 /
b1110 &"
b1110 )"
b0 2
b0 e
b0 %"
1A
b0 F
b0 I
b0 a
b100100 ;
b100100 n
b100100 s
b100000 9
b100000 Z
b100000 2"
b1110000000000000100000 8
b1110000000000000100000 t
b1000 :
b1000 i
b1000 }
b1000 0"
b1000 1"
b1000 -
b1000 /"
b1000 +
b1000 `
b0 M
b0 O
b0 D
b0 R
b0 w
b0 ,"
b0 )
b0 +"
b0 B
b0 \
b0 j
b0 ."
b1110 (
b1110 !"
b1110 -"
b0 *
b0 ""
b1000 ,
b1000 H
b1000 _
b100000000011100000000000001000 .
b100000000011100000000000001000 f
b1000100 =
b1000100 Y
b1000100 m
b100100 &
b100100 S
b100100 V
b100100 X
b100100 l
b100000 %
b100000 W
b100000 g
b100000 ("
1"
#650000
0"
#675000
b100000 1
b100000 ~
b100000 *"
b1000 /
b1000 &"
b1000 )"
b11 G
b11 J
b11 K
b101000 $
b101000 x
b101000 '"
b1000 N
b1000 P
b1000 C
b1000 Q
b1000 k
b100000 E
b100000 T
b100000 [
b100000 y
b1 2
b1 e
b1 %"
0A
b10 F
b10 I
b10 a
b101000 ;
b101000 n
b101000 s
b10000000010001100 9
b10000000010001100 Z
b10000000010001100 2"
b110001110010000000010001100 8
b110001110010000000010001100 t
b100000000100011 :
b100000000100011 i
b100000000100011 }
b100000000100011 0"
b100000000100011 1"
b100000000100011 -
b100000000100011 /"
b0 +
b0 `
b101000 M
b101000 O
b101000 D
b101000 R
b101000 w
b101000 ,"
b1100 )
b1100 +"
b1000 *
b1000 ""
b100011 ,
b100011 H
b100011 _
b1100011100100000000100011 .
b1100011100100000000100011 f
b10000000010110100 =
b10000000010110100 Y
b10000000010110100 m
b101000 &
b101000 S
b101000 V
b101000 X
b101000 l
b100100 %
b100100 W
b100100 g
b100100 ("
b1000 B
b1000 \
b1000 j
b1000 ."
1"
#700000
0"
#725000
b0 1
b0 ~
b0 *"
0q
1@
b101100 $
b101100 x
b101100 '"
1o
0p
b0 E
b0 T
b0 [
b0 y
b0 N
b0 P
b0 C
b0 Q
b0 k
b1001 /
b1001 &"
b1001 )"
b1001 G
b1001 J
b1001 K
b0 2
b0 e
b0 %"
1A
b0 F
b0 I
b0 a
b101100 ;
b101100 n
b101100 s
b0 9
b0 Z
b0 2"
b1001000000000000000000 8
b1001000000000000000000 t
b0 :
b0 i
b0 }
b0 0"
b0 1"
b0 -
b0 /"
b1000 +
b1000 `
b0 M
b0 O
b0 D
b0 R
b0 w
b0 ,"
b0 )
b0 +"
b100 B
b100 \
b100 j
b100 ."
b1001 (
b1001 !"
b1001 -"
b0 *
b0 ""
b0 ,
b0 H
b0 _
b100000000010010000000000000000 .
b100000000010010000000000000000 f
b101100 =
b101100 Y
b101100 m
b101100 &
b101100 S
b101100 V
b101100 X
b101100 l
b101000 %
b101000 W
b101000 g
b101000 ("
1"
#750000
0"
#775000
b11 1
b11 ~
b11 *"
b10 G
b10 J
b10 K
b110000 $
b110000 x
b110000 '"
0o
b11 5
b11 ]
b11 z
1q
0@
b100100 E
b100100 T
b100100 [
b100100 y
b1010 /
b1010 &"
b1010 )"
b100 N
b100 P
b100 C
b100 Q
b100 k
b1 3
b1 d
b1 |
16
b101 F
b101 I
b101 a
b110000 ;
b110000 n
b110000 s
b10000 9
b10000 Z
b10000 2"
b100001010000000000000010000 8
b100001010000000000000010000 t
b100 :
b100 i
b100 }
b100 0"
b100 1"
b100 -
b100 /"
b100011 +
b100011 `
b100000 M
b100000 O
b100000 D
b100000 R
b100000 w
b100000 ,"
b1000 )
b1000 +"
b1010 (
b1010 !"
b1010 -"
b100 ,
b100 H
b100 _
b10001101000010100000000000000100 .
b10001101000010100000000000000100 f
b1000000 =
b1000000 Y
b1000000 m
b110000 &
b110000 S
b110000 V
b110000 X
b110000 l
b101100 %
b101100 W
b101100 g
b101100 ("
b11 B
b11 \
b11 j
b11 ."
1"
#800000
0"
#825000
b1 1
b1 ~
b1 *"
b1 5
b1 ]
b1 z
b100000 E
b100000 T
b100000 [
b100000 y
b110100 $
b110100 x
b110100 '"
b1011 /
b1011 &"
b1011 )"
b0 N
b0 P
b0 C
b0 Q
b0 k
b110100 ;
b110100 n
b110100 s
b0 9
b0 Z
b0 2"
b100001011000000000000000000 8
b100001011000000000000000000 t
b0 :
b0 i
b0 }
b0 0"
b0 1"
b0 -
b0 /"
b1100100 B
b1100100 \
b1100100 j
b1100100 ."
b1011 (
b1011 !"
b1011 -"
b0 ,
b0 H
b0 _
b10001101000010110000000000000000 .
b10001101000010110000000000000000 f
b110100 =
b110100 Y
b110100 m
b110100 &
b110100 S
b110100 V
b110100 X
b110100 l
b110000 %
b110000 W
b110000 g
b110000 ("
1"
#850000
0"
#875000
b11 G
b11 J
b11 K
b111000 $
b111000 x
b111000 '"
b1 N
b1 P
b1 C
b1 Q
b1 k
b10 E
b10 T
b10 [
b10 y
b1 ?
b1 b
b1 r
bx 3
bx d
bx |
06
1<
bx 2
bx e
bx %"
0A
b1000 F
b1000 I
b1000 a
00
b111000 ;
b111000 n
b111000 s
b1100 9
b1100 Z
b1100 2"
b101001011000000000000001100 8
b101001011000000000000001100 t
b11 :
b11 i
b11 }
b11 0"
b11 1"
b11 -
b11 /"
b110 +
b110 `
b11 M
b11 O
b11 D
b11 R
b11 w
b11 ,"
b1010 )
b1010 +"
b11 ,
b11 H
b11 _
b11001010010110000000000000011 .
b11001010010110000000000000011 f
b1000100 =
b1000100 Y
b1000100 m
b111000 &
b111000 S
b111000 V
b111000 X
b111000 l
b110100 %
b110100 W
b110100 g
b110100 ("
b1 B
b1 \
b1 j
b1 ."
1"
#900000
0"
#925000
b10 G
b10 J
b10 K
b111100 $
b111100 x
b111100 '"
b100000 E
b100000 T
b100000 [
b100000 y
b0 N
b0 P
b0 C
b0 Q
b0 k
bx ?
bx b
bx r
14
0<
1A
b111 F
b111 I
b111 a
b111100 ;
b111100 n
b111100 s
b0 9
b0 Z
b0 2"
b100001010000000000000000000 8
b100001010000000000000000000 t
b0 :
b0 i
b0 }
b0 0"
b0 1"
b0 -
b0 /"
b101011 +
b101011 `
b100000 M
b100000 O
b100000 D
b100000 R
b100000 w
b100000 ,"
b1000 )
b1000 +"
b11 B
b11 \
b11 j
b11 ."
b1010 (
b1010 !"
b1010 -"
b0 ,
b0 H
b0 _
b10101101000010100000000000000000 .
b10101101000010100000000000000000 f
b111100 =
b111100 Y
b111100 m
b111100 &
b111100 S
b111100 V
b111100 X
b111100 l
b111000 %
b111000 W
b111000 g
b111000 ("
1"
#950000
0"
#975000
b100100 E
b100100 T
b100100 [
b100100 y
b1000000 $
b1000000 x
b1000000 '"
b100 N
b100 P
b100 C
b100 Q
b100 k
b1000000 ;
b1000000 n
b1000000 s
b10000 9
b10000 Z
b10000 2"
b100001011000000000000010000 8
b100001011000000000000010000 t
b100 :
b100 i
b100 }
b100 0"
b100 1"
b100 -
b100 /"
b1 B
b1 \
b1 j
b1 ."
b1011 (
b1011 !"
b1011 -"
b100 ,
b100 H
b100 _
b10101101000010110000000000000100 .
b10101101000010110000000000000100 f
b1010000 =
b1010000 Y
b1010000 m
b1000000 &
b1000000 S
b1000000 V
b1000000 X
b1000000 l
b111100 %
b111100 W
b111100 g
b111100 ("
1"
#1000000
0"
#1025000
b1 1
b1 ~
b1 *"
b1001 /
b1001 &"
b1001 )"
b1001 G
b1001 J
b1001 K
b1000100 $
b1000100 x
b1000100 '"
b1 E
b1 T
b1 [
b1 y
b1 N
b1 P
b1 C
b1 Q
b1 k
b0 3
b0 d
b0 |
04
b0 2
b0 e
b0 %"
b0 F
b0 I
b0 a
10
b1000100 ;
b1000100 n
b1000100 s
b100 9
b100 Z
b100 2"
b1001000000000000000100 8
b1001000000000000000100 t
b1 :
b1 i
b1 }
b1 0"
b1 1"
b1 -
b1 /"
b1000 +
b1000 `
b0 M
b0 O
b0 D
b0 R
b0 w
b0 ,"
b0 )
b0 +"
b0 B
b0 \
b0 j
b0 ."
b1001 (
b1001 !"
b1001 -"
b1 ,
b1 H
b1 _
b100000000010010000000000000001 .
b100000000010010000000000000001 f
b1001000 =
b1001000 Y
b1001000 m
b1000100 &
b1000100 S
b1000100 V
b1000100 X
b1000100 l
b1000000 %
b1000000 W
b1000000 g
b1000000 ("
1"
#1050000
0"
#1075000
b100 1
b100 ~
b100 *"
b100 E
b100 T
b100 [
b100 y
b1001000 $
b1001000 x
b1001000 '"
b1101 /
b1101 &"
b1101 )"
b100 N
b100 P
b100 C
b100 Q
b100 k
b1001000 ;
b1001000 n
b1001000 s
b10000 9
b10000 Z
b10000 2"
b1101000000000000010000 8
b1101000000000000010000 t
b100 :
b100 i
b100 }
b100 0"
b100 1"
b100 -
b100 /"
b1101 (
b1101 !"
b1101 -"
b100 ,
b100 H
b100 _
b100000000011010000000000000100 .
b100000000011010000000000000100 f
b1011000 =
b1011000 Y
b1011000 m
b1001000 &
b1001000 S
b1001000 V
b1001000 X
b1001000 l
b1000100 %
b1000100 W
b1000100 g
b1000100 ("
b0 B
b0 \
b0 j
b0 ."
1"
#1100000
0"
